s:56:"https://www.wap-nilfisk-alto-shop.de/stage/api/articles?";
s:58:"<h2>Could not decode json</h2>json_last_error: Syntaxerror";
s:58:"https://www.wap-nilfisk-alto-shop.de/stage/api/categories?";
s:58:"<h2>Could not decode json</h2>json_last_error: Syntaxerror";
s:58:"https://www.wap-nilfisk-alto-shop.de/stage/api/categories?";
s:58:"<h2>Could not decode json</h2>json_last_error: Syntaxerror";
s:56:"https://www.wap-nilfisk-alto-shop.de/stage/api/articles?";
s:58:"<h2>Could not decode json</h2>json_last_error: Syntaxerror";
s:58:"https://www.wap-nilfisk-alto-shop.de/stage/api/categories?";
s:58:"<h2>Could not decode json</h2>json_last_error: Syntaxerror";
s:58:"https://www.wap-nilfisk-alto-shop.de/stage/api/categories?";
s:58:"<h2>Could not decode json</h2>json_last_error: Syntaxerror";
s:58:"https://www.wap-nilfisk-alto-shop.de/stage/api/categories?";
s:58:"<h2>Could not decode json</h2>json_last_error: Syntaxerror";
s:56:"https://www.wap-nilfisk-alto-shop.de/stage/api/articles?";
s:58:"<h2>Could not decode json</h2>json_last_error: Syntaxerror";
s:58:"https://www.wap-nilfisk-alto-shop.de/stage/api/categories?";
s:58:"<h2>Could not decode json</h2>json_last_error: Syntaxerror";
s:58:"https://www.wap-nilfisk-alto-shop.de/stage/api/categories?";
s:58:"<h2>Could not decode json</h2>json_last_error: Syntaxerror";
s:58:"https://www.wap-nilfisk-alto-shop.de/stage/api/categories?";
s:58:"<h2>Could not decode json</h2>json_last_error: Syntaxerror";
s:56:"https://www.wap-nilfisk-alto-shop.de/stage/api/articles?";
s:58:"<h2>Could not decode json</h2>json_last_error: Syntaxerror";
s:58:"https://www.wap-nilfisk-alto-shop.de/stage/api/categories?";
s:58:"<h2>Could not decode json</h2>json_last_error: Syntaxerror";
s:58:"https://www.wap-nilfisk-alto-shop.de/stage/api/categories?";
s:58:"<h2>Could not decode json</h2>json_last_error: Syntaxerror";
s:58:"https://www.wap-nilfisk-alto-shop.de/stage/api/categories?";
s:58:"<h2>Could not decode json</h2>json_last_error: Syntaxerror";
s:56:"https://www.wap-nilfisk-alto-shop.de/stage/api/articles?";
s:58:"<h2>Could not decode json</h2>json_last_error: Syntaxerror";
s:56:"https://www.wap-nilfisk-alto-shop.de/stage/api/articles?";
s:58:"<h2>Could not decode json</h2>json_last_error: Syntaxerror";
