CrossSelling;10001+20004+70124+70073;SI.SQ148L;;;;10
CrossSelling;10001+20004+70124+70073;SI.SQ140L1;;;;20
CrossSelling;10114004;"""350/20""";;;;10
CrossSelling;10114004;DG21;;;;20
CrossSelling;10114004;"""326/00""";;;;30
CrossSelling;"""320/00""";"""350/20""";;;;10
CrossSelling;"""320/00""";DG21;;;;20
CrossSelling;"""320/00""";"""326/00""";;;;30
CrossSelling;"""321/00""";"""350/20""";;;;10
CrossSelling;"""321/00""";DG21;;;;20
CrossSelling;"""321/00""";"""326/00""";;;;30
CrossSelling;DG16;"""350/20""";;;;10
CrossSelling;DG16;DG21;;;;20
CrossSelling;DG16;"""326/00""";;;;30
ProductComparison;DG16;SI.PL160;;;;10
CrossSelling;"""323/00""";"""350/20""";;;;10
CrossSelling;"""323/00""";DG21;;;;20
CrossSelling;"""323/00""";"""326/00""";;;;30
CrossSelling;"""324/00""";"""350/20""";;;;10
CrossSelling;"""324/00""";DG21;;;;20
CrossSelling;"""324/00""";"""326/00""";;;;30
CrossSelling;DG19;"""350/20""";;;;10
CrossSelling;DG19;DG21;;;;20
CrossSelling;DG19;"""326/00""";;;;30
CrossSelling;DG19;DG20;;;;40
ProductComparison;DG19;SI.PL160;;;;10
CrossSelling;DG18;SI.PL160;;;;10
CrossSelling;DG18;DG16;;;;20
CrossSelling;DG18;DG19;;;;30
ProductComparison;DG18;SI.PL166;;;;10
ProductComparison;DG18;SI.PL166x2;;;;20
ProductComparison;DG18;IP.43101;;;;30
CrossSelling;"""350/00""";"""350/20""";;;;10
CrossSelling;"""350/00""";DG21;;;;20
CrossSelling;"""350/00""";"""326/00""";;;;30
CrossSelling;"""350/20""";"""350/00""";;;;10
CrossSelling;DG20;DG19;;;;10
CrossSelling;DG20;"""320/00""";;;;20
ProductComparison;DG20;DG19+DG20;;;;10
Accessory;DG20;DG21;;;;10
CrossSelling;DG21;DG19+DG20;;;;10
CrossSelling;DG21;DG20;;;;20
Accessory;DG21;DG19+DG20;;;;10
CrossSelling;AD581-003-009;130451294518;;;;20
CrossSelling;BI01;BI03;;;;10
ProductComparison;BI01;BI03;;;;10
ProductComparison;"""CA AT52.....""";MOT01;;;;10
ProductComparison;"""CA AT52.....""";MOT03;;;;20
Accessory;"""CA AT52.....""";MOT02;;;;10
CrossSelling;CRI01;DK01;;;;10
CrossSelling;CRI01;KAI01;;;;20
CrossSelling;CRI01;MA.RD635E;;;;40
ProductComparison;CRI01;VEL2011;;;;20
ProductComparison;CRI01;VEL2013;;;;30
ProductComparison;DE02;JE01;;;;10
ProductComparison;DE02;JE02;;;;20
Accessory;DE02;DE05;;;;10
ProductComparison;DE05;JE03;;;;10
Accessory;DE05;DE02;;;;10
CrossSelling;IP.68102;IP.67199;;;;10
CrossSelling;IP.67199;IP.01019,5;;;;10
CrossSelling;IP.67199;IP.6070;;;;20
CrossSelling;IP.67199;KO.0.658.4560;;;;30
Accessory;IP.67199;IP.68102;;;;10
CrossSelling;DG15;IP.68102;;;;30
CrossSelling;DG15;"""350/20""";;;;40
CrossSelling;DG15;DG21;;;;50
CrossSelling;DG15;"""326/00""";;;;60
CrossSelling;DK01;CRI01;;;;10
ProductComparison;DK01;MAV01;;;;10
CrossSelling;EM01;EM02;;;;10
Accessory;EM01;EM03;;;;10
CrossSelling;EM02;EM01;;;;10
ProductComparison;EM02;EM01;;;;10
Accessory;EM02;EM03;;;;10
Accessory;EM03;EM02;;;;10
Accessory;EM03;EM01;;;;20
ProductComparison;G11301;SM01;;;;10
ProductComparison;SM01;G11301;;;;10
CrossSelling;G201200;G201202;;;;10
CrossSelling;G201200;G201201;;;;20
CrossSelling;G201201;G201200;;;;10
CrossSelling;G201202;G201200;;;;10
CrossSelling;HDW_0571;HDW_0921;;;;10
CrossSelling;HDW_0571;HDW_0910;;;;20
CrossSelling;HDW_0571;HDW_0919;;;;30
CrossSelling;HDW_0583;HDW_0907;;;;10
CrossSelling;HDW_0583;HDW_0908;;;;20
CrossSelling;HDW_0583;HDW_0909;;;;30
CrossSelling;HDW_0583;HDW_0921;;;;40
CrossSelling;HDW_0583;HDW_0651;;;;50
CrossSelling;HDW_0583;HDW_0910;;;;60
CrossSelling;HDW_0583;HDW_0919;;;;70
CrossSelling;HDW_0595;HDW_0907;;;;10
CrossSelling;HDW_0595;HDW_0908;;;;20
CrossSelling;HDW_0595;HDW_0909;;;;30
CrossSelling;HDW_0595;HDW_0921;;;;40
CrossSelling;HDW_0595;HDW_0651;;;;50
CrossSelling;HDW_0595;HDW_0910;;;;60
CrossSelling;HDW_0595;HDW_0919;;;;70
CrossSelling;HDW_0921;HDW_0571;;;;10
CrossSelling;HDW_0931;HDW_0921;;;;10
CrossSelling;HDW_0931;HDW_0651;;;;20
CrossSelling;HDW_0931;HDW_0910;;;;30
CrossSelling;HDW_0931;HDW_0919;;;;40
CrossSelling;HDW_0934;HDW_0921;;;;10
CrossSelling;HDW_0934;HDW_0651;;;;20
CrossSelling;HDW_0934;HDW_0910;;;;30
CrossSelling;HDW_0934;HDW_0919;;;;40
CrossSelling;HDW_0940;HDW_0907;;;;10
CrossSelling;HDW_0940;HDW_0908;;;;20
CrossSelling;HDW_0940;HDW_0909;;;;30
CrossSelling;HDW_0940;HDW_0921;;;;40
CrossSelling;HDW_0940;HDW_0651;;;;50
CrossSelling;HDW_0940;HDW_0910;;;;60
CrossSelling;HDW_0940;HDW_0919;;;;70
CrossSelling;HDW_0949;HDW_0921;;;;10
CrossSelling;HDW_0949;HDW_0651;;;;20
CrossSelling;HDW_0949;HDW_0910;;;;30
CrossSelling;HDW_0949;HDW_0919;;;;40
CrossSelling;IP.01064;MT01;;;;10
CrossSelling;IP.01019,1N;IP.6071;;;;10
CrossSelling;IP.01019,1N;IP.6070;;;;20
CrossSelling;IP.01020,1;"""350/20""";;;;10
CrossSelling;IP.01020,1;DG21;;;;20
CrossSelling;IP.01020,1;"""326/00""";;;;30
CrossSelling;IP.01994;MT01;;;;10
CrossSelling;IP.01014;MT01;;;;10
CrossSelling;IP.27448;"""350/20""";;;;10
CrossSelling;IP.27448;DG21;;;;20
CrossSelling;IP.27448;"""326/00""";;;;30
CrossSelling;IP.43101;"""350/20""";;;;10
CrossSelling;IP.43101;DG21;;;;20
CrossSelling;IP.43101;"""326/00""";;;;30
CrossSelling;IP.43101;SI.PL160;;;;40
CrossSelling;IP.43103;"""350/20""";;;;10
CrossSelling;IP.43103;DG21;;;;20
CrossSelling;IP.43103;"""326/00""";;;;30
CrossSelling;IP.6070;IP.01019,5;;;;10
CrossSelling;IP.6070;TI02;;;;20
CrossSelling;IP.6070;TI03;;;;30
Accessory;IP.6070;IP.01019,1N;;;;10
CrossSelling;IP.6071;TI02;;;;10
CrossSelling;IP.6071;TI03;;;;20
CrossSelling;IP.6071;IP.01019,5;;;;30
ProductComparison;IP.6071;IP.6070;;;;10
ProductComparison;IP.6071;IP.67199;;;;20
Accessory;IP.6071;IP.01019,1N;;;;10
ProductComparison;JE01;DE02;;;;10
ProductComparison;JE01;JE02;;;;20
Accessory;JE01;JE03;;;;10
CrossSelling;KAI01;CRI01;;;;10
CrossSelling;MA.RD635E;CRI01;;;;10
CrossSelling;MA.MUN.C.L;MA.C20L;;;;10
Accessory;MA.MUN.C.L;AMS01;;;;10
CrossSelling;MA.MUN.C;MA.C20;;;;10
Accessory;MA.MUN.C;AMS01;;;;10
CrossSelling;MA.MUN.F;MA.C20;;;;10
ProductComparison;MAD.100M;MAD.100PC;;;;10
Accessory;MAD.100M;MAD.098;;;;10
Accessory;MAD.100M;MAD.B1;;;;20
ProductComparison;MAV01;DK01;;;;10
CrossSelling;MK.EM1190K;MED05;;;;10
CrossSelling;"""MK LS0021""";"""MK LS0031""";;;;10
CrossSelling;"""MK LS0021""";"""MK LS0091""";;;;20
CrossSelling;"""MK LS0031""";"""MK LS0091""";;;;10
CrossSelling;"""MK LS0031""";"""MK LS0021""";;;;20
CrossSelling;"""MK LS0091""";"""MK LS0031""";;;;10
CrossSelling;"""MK LS0091""";"""MK LS0021""";;;;20
CrossSelling;MK.PP1011;YU01;;;;10
CrossSelling;MK.PP1011;YU;;;;20
CrossSelling;MK.PP1011;"YU/SubProducts/""YU01/YU02""";;;;30
CrossSelling;MK.PP1011;"YU/SubProducts/""YU01/YU08""";;;;40
ProductComparison;MOT01;"""CA AT52.....""";;;;10
ProductComparison;MOT01;MOT03;;;;20
Accessory;MOT01;MOT02;;;;10
Accessory;MOT02;MOT01;;;;10
Accessory;MOT02;"""CA AT52.....""";;;;20
ProductComparison;MOT03;MOT01;;;;10
ProductComparison;MOT03;"""CA AT52.....""";;;;20
Accessory;MOT03;MOT02;;;;10
CrossSelling;MT01;"""MT03 G""";;;;40
Accessory;MT01;MT02;;;;10
Accessory;MT01;"""NP HL0003""";;;;20
Accessory;MT01;"""MT03 G""";;;;40
Accessory;MT02;MT01;;;;30
Accessory;MT02;"""NP HL0003""";;;;50
Accessory;MT02;"""MT03 G""";;;;60
CrossSelling;"""MT03 G""";MT01;;;;20
Accessory;"""MT03 G""";MT02;;;;10
Accessory;"""MT03 G""";MT01;;;;50
Accessory;"""MT03 G""";"""NP HL0003""";;;;70
Accessory;"""NP HL0003""";MT02;;;;20
Accessory;"""NP HL0003""";MT01;;;;50
Accessory;"""NP HL0003""";"""MT03 G""";;;;70
Accessory;PDM;ZI16;;;;10
CrossSelling;SI.SQ140L1;10001+20004+70124+70073;;;;10
ProductComparison;SI.SQ140L1;SI.SQ148L;;;;10
Accessory;SI.SQ140L1;SI.DM148;;;;10
Accessory;SI.SQ140L1;SI.DA147;;;;20
CrossSelling;SI.SQ148L;10001+20004+70124+70073;;;;10
ProductComparison;SI.SQ148L;SI.SQ140L1;;;;10
Accessory;SI.SQ148L;SI.DM148;;;;10
Accessory;SI.SQ148L;SI.DA147;;;;20
Accessory;SI.DA147;SI.SQ148L;;;;10
Accessory;SI.DA147;SI.SQ149D;;;;20
Accessory;SI.DA147;SI.SQ140L1;;;;30
CrossSelling;SI.PL160;SI.PL166;;;;10
CrossSelling;SI.PL160;IP.43101;;;;20
ProductComparison;SI.PL160;DG19;;;;10
ProductComparison;SI.PL160;DG16;;;;20
CrossSelling;SI.PL166;"""350/20""";;;;10
CrossSelling;SI.PL166;DG21;;;;20
CrossSelling;SI.PL166;"""326/00""";;;;30
CrossSelling;SI.PL166;SI.PL160;;;;40
CrossSelling;SI.SR192;SI.SR194;;;;10
CrossSelling;SI.SR192;SI.SR198;;;;20
ProductComparison;SI.SR192;SI.SR194;;;;10
ProductComparison;SI.SR192;SI.SR198;;;;20
CrossSelling;SI.SR194;SI.SR192;;;;10
CrossSelling;SI.SR194;SI.SR198;;;;20
ProductComparison;SI.SR194;SI.SR192;;;;10
ProductComparison;SI.SR194;SI.SR198;;;;20
ProductComparison;SI.SR194;SI.SR330W;;;;30
CrossSelling;SI.SR198;SI.SR192;;;;10
CrossSelling;SI.SR198;SI.SR194;;;;20
ProductComparison;SI.SR198;SI.SR192;;;;10
ProductComparison;SI.SR198;SI.SR194;;;;20
Accessory;SI.DM148;SI.SQ148L;;;;10
Accessory;SI.DM148;SI.SQ149D;;;;20
Accessory;SI.DM148;SI.SQ140L1;;;;30
ProductComparison;SI.SR330T;SI.SR330W;;;;10
Accessory;SI.SR330T;SI.SR333-SR335;;;;10
ProductComparison;SI.SR330W;SI.SR330T;;;;10
Accessory;SI.SR330W;SI.SR333-SR335;;;;10
CrossSelling;SI.SR902;DV.IVN11;;;;10
ProductComparison;SI.SR902;SI.SR903;;;;10
CrossSelling;SI.SR921B-SR923B;SI.SR927A;;;;10
CrossSelling;"""SI.SR922R/SR923R""";SI.SR927A;;;;10
CrossSelling;SI.SR400;SI.SR250;;;;10
CrossSelling;SI.SR400;SUN01;;;;20
CrossSelling;SI.SR903;DV.IVN11;;;;10
ProductComparison;SI.SR903;SI.SR902;;;;10
CrossSelling;SI.SR927A;"""SI.SR922R/SR923R""";;;;20
CrossSelling;SI.SR927A;SI.SQ149D;;;;10
ProductComparison;SI.SR927A;IP.6070;;;;10
ProductComparison;SI.SR927A;IP.6071;;;;20
Accessory;SI.SR927A;SI.SR928S;;;;10
CrossSelling;VAC01;VAC03;;;;10
CrossSelling;VAC01;VAC05;;;;20
CrossSelling;VAC03;VAC01;;;;10
CrossSelling;VAC05;VAC01;;;;10
CrossSelling;VEL2013;KAI01;;;;10
CrossSelling;VEL2013;ROEWS1000;;;;30
ProductComparison;VEL2013;CRI01;;;;10
ProductComparison;VEL2011;CRI01;;;;10
CrossSelling;LA01;MT01;;;;10
CrossSelling;W01;W02;;;;10
CrossSelling;W02;ZI11;;;;10
CrossSelling;W02;W01;;;;20
CrossSelling;YU01;"""YU02/YU08""";;;;10
CrossSelling;YU01;"""MK PP1011/4""";;;;20
Accessory;YU01;YU03;;;;10
Accessory;YU01;YU07;;;;30
Accessory;YU01;YU05;;;;40
Accessory;YU01;YU04;;;;50
Accessory;YU01;"""YU02/YU08""";;;;20
Accessory;YU01;MK.PP1011;;;;60
CrossSelling;YU;MK.PP1011;;;;10
CrossSelling;YU;"""MK PP1011/4""";;;;20
Accessory;YU;YU03;;;;10
Accessory;YU;YU07;;;;20
Accessory;YU;YU05;;;;30
Accessory;YU;YU04;;;;40
Accessory;YU;MK.PP1011;;;;50
CrossSelling;"""YU02/YU08""";YU01;;;;10
CrossSelling;"""YU02/YU08""";YU;;;;20
CrossSelling;ZI07;ZI14;;;;10
CrossSelling;ZI07;ZI15;;;;20
CrossSelling;ZI07;ZI14;;;;10
CrossSelling;ZI07;ZI15;;;;20
Accessory;ZI08;"""ZI09/ZI22""";;;;10
Accessory;ZI08;W01;;;;20
CrossSelling;"""ZI09/ZI22""";ZI08;;;;10
CrossSelling;"""ZI09/ZI22""";"""ZI10/ZI01""";;;;20
CrossSelling;"""ZI09/ZI22""";ZI23;;;;30
ProductComparison;"""ZI09/ZI22""";ZI23;;;;10
CrossSelling;"""ZI10/ZI01""";W01;;;;20
CrossSelling;"""ZI10/ZI01""";ZI08;;;;30
CrossSelling;ZI11;W02;;;;10
CrossSelling;ZI14;ZI15;;;;10
CrossSelling;ZI14;ZI18.SELF;;;;20
CrossSelling;ZI14;ZI23;;;;30
ProductComparison;ZI14;ZI23;;;;10
CrossSelling;ZI15;ZI23;;;;10
ProductComparison;ZI15;ZI23;;;;10
Accessory;ZI15;ZI14;;;;10
Accessory;ZI16;PDM;;;;10
CrossSelling;ZI18.SELF;ZI14;;;;10
Accessory;ZI18.SELF;ZI14;;;;10
CrossSelling;SI.PL166x2;"""350/20""";;;;10
CrossSelling;SI.PL166x2;DG21;;;;20
CrossSelling;SI.PL166x2;"""326/00""";;;;30
CrossSelling;smart17;"""350/20""";;;;10
CrossSelling;smart17;DG21;;;;20
CrossSelling;smart17;"""326/00""";;;;30
Accessory;DG19+DG20;DG21;;;;10
CrossSelling;MED01;MED02;;;;10
ProductComparison;MED01;MED02;;;;10
CrossSelling;MED02;MED01;;;;10
ProductComparison;MED02;MED01;;;;10
CrossSelling;SI.SQ149D;SI.SR927A;;;;10
Accessory;SI.SQ149D;SI.DM148;;;;10
Accessory;SI.SQ149D;SI.DA147;;;;20
ProductComparison;JE02;JE01;;;;10
ProductComparison;JE02;DE02;;;;20
Accessory;JE02;JE03;;;;10
CrossSelling;MED05;MK.EM1190K;;;;10
ProductComparison;MAD.100PC;MAD.100M;;;;10
Accessory;MAD.100PC;MAD.098;;;;10
Accessory;MAD.100PC;MAD.B1;;;;20
Accessory;SI.SR928S;SI.SR927A;;;;10
CrossSelling;MAD.B1;MAD.100M;;;;10
CrossSelling;MAD.B1;MAD.100PC;;;;20
CrossSelling;MAD.098;MAD.100M;;;;10
CrossSelling;MAD.098;MAD.100PC;;;;20
CrossSelling;JE03;JE01;;;;10
CrossSelling;JE03;JE02;;;;20
ProductComparison;JE03;DE05;;;;10
CrossSelling;BI03;BI01;;;;10
ProductComparison;BI03;BI01;;;;10
Accessory;YU11;YU01;;;;10
