"Implantologie Winkelstück Chirurgie";2078;Implantologie-Winkelstueck;Contra-Angle-Handpiece-for-Implantolo
"Dunkelkammer-Leuchte, Röntgen-Licht";2079;Dunkelkammer-Leuchte-Roentgen-Licht;KAI01
"Saugschlauch klein für Sirona und Kavo Einheiten";2080;Saugschlauch-klein-fuer-Sirona-und-Kavo;VAC01
"kleiner Speichelzieher Absaugschlauch für Ritter* Finndent* ADEC*Ultradent*";2081;kleiner-Absaugschlauch-fuer-Ritter;VAC02
"Großer Speichelzieher Saugschlauch für Sirona* Behandlungsstühle";2082;Saugschlauch-gross-fuer-Sirona-Einheiten;VAC03
"Absaugschlauch für Ultradent Finndent ADEC Anthos Weber*";2083;Saugschlauch-gross-Ultradent;VAC04
"Großer Saugschlauch KaVo* Speichelzieher";2084;Saugschlauch-gross-fuer-Kavo-Einheiten;VAC05
"Gerätewagen Dental Trolley ""Classic Art""";2085;Geraetewagen-Cart-Dentaltechnik-Trolley-Laborbedarf;Dental-Trolley-3
