https://www.smartandeasy.net/WebRoot/Store16/Shops/78056732/543E/498A/80F2/A26D/98CE/C0A8/2AB8/8662/DG05_Implantologie-Winkelstueck_-_Oralchirurgie__Implantologie_Chirurgie_Winkelstueck_Chirurgiegeraet_0_ml.jpg;3731
https://www.smartandeasy.net/WebRoot/Store16/Shops/78056732/543E/498A/80F2/A26D/98CE/C0A8/2AB8/8662/Implantologie_Chirurgie_Winkelstueck_ml.jpg;3732
https://www.smartandeasy.net/WebRoot/Store16/Shops/78056732/543E/4994/AD5A/8EB3/6A10/C0A8/2AB8/86D4/Dunkelkammerleuchte_Dunkelkammer_Lampe_ml.jpg;3733
https://www.smartandeasy.net/WebRoot/Store16/Shops/78056732/543E/49AA/F9CF/993D/125D/C0A8/2AB8/867A/VAC01_Saugschlauch_klein_fuer_Sirona_und_Kavo_Einheit__0_ml.JPG;3734
https://www.smartandeasy.net/WebRoot/Store16/Shops/78056732/543E/49AA/5E95/7D99/0290/C0A8/2AB8/8663/Saugschlauch_Speichelzieher_Ritter_Dental_ml.JPG;3735
https://www.smartandeasy.net/WebRoot/Store16/Shops/78056732/543E/49AA/5082/52FD/9CF5/C0A8/2AB8/86A5/Grosser_Absaugschlauch_Sirona_Dental_ml.JPG;3736
https://www.smartandeasy.net/WebRoot/Store16/Shops/78056732/543E/49AA/A7F4/1BDC/1A9D/C0A8/2AB8/869C/Grosser_Absaugschlauch_Ultradent_Finndent_Anthos_Weber_ml.JPG;3737
https://www.smartandeasy.net/WebRoot/Store16/Shops/78056732/543E/49AA/1D81/6091/3E82/C0A8/2AB8/86A2/Grosser_Saugschlauch_KaVo_Speichelzieher_ml.JPG;3738
https://www.smartandeasy.net/WebRoot/Store16/Shops/78056732/543E/49AD/08EE/41D0/4857/C0A8/2AB8/86D9/ZI08_Geraetewagen_Cart_Dentaltechnik_Trolley_Laborbedarf_Dental_Trolley_Ablage_fuer_Dentalgeraete_0_ml.jpg;3739
https://www.smartandeasy.net/WebRoot/Store16/Shops/78056732/543E/498A/80F2/A26D/98CE/C0A8/2AB8/8662/DG05_Implantologie-Winkelstueck_-_Oralchirurgie__Implantologie_Chirurgie_Winkelstueck_Chirurgiegeraet_0.jpg;3740
https://www.smartandeasy.net/WebRoot/Store16/Shops/78056732/543E/498A/80F2/A26D/98CE/C0A8/2AB8/8662/DG05_Implantologie-Winkelstueck_-_Oralchirurgie__Implantologie_Chirurgie_Winkelstueck_Chirurgiegeraet_1.jpg;3741
https://www.smartandeasy.net/WebRoot/Store16/Shops/78056732/543E/498A/80F2/A26D/98CE/C0A8/2AB8/8662/Implantologie_Chirurgie_Winkelstueck.jpg;3742
https://www.smartandeasy.net/WebRoot/Store16/Shops/78056732/543E/4994/AD5A/8EB3/6A10/C0A8/2AB8/86D4/Dunkelkammerleuchte_Dunkelkammer_Lampe.jpg;3743
https://www.smartandeasy.net/WebRoot/Store16/Shops/78056732/543E/49AA/F9CF/993D/125D/C0A8/2AB8/867A/VAC01_Saugschlauch_klein_fuer_Sirona_und_Kavo_Einheit__0.JPG;3744
https://www.smartandeasy.net/WebRoot/Store16/Shops/78056732/543E/49AA/F9CF/993D/125D/C0A8/2AB8/867A/VAC01_Saugschlauch_klein_fuer_Sirona_und_Kavo_Einheit__1.JPG;3745
https://www.smartandeasy.net/WebRoot/Store16/Shops/78056732/543E/49AA/5E95/7D99/0290/C0A8/2AB8/8663/Saugschlauch_Speichelzieher_Ritter_Dental.JPG;3746
https://www.smartandeasy.net/WebRoot/Store16/Shops/78056732/543E/49AA/5E95/7D99/0290/C0A8/2AB8/8663/Ritter_Dental_Speichelzieher.JPG;3747
https://www.smartandeasy.net/WebRoot/Store16/Shops/78056732/543E/49AA/5082/52FD/9CF5/C0A8/2AB8/86A5/Grosser_Absaugschlauch_Sirona_Dental.JPG;3748
https://www.smartandeasy.net/WebRoot/Store16/Shops/78056732/543E/49AA/5082/52FD/9CF5/C0A8/2AB8/86A5/Sirona_Dental_Speichelzieher.JPG;3749
https://www.smartandeasy.net/WebRoot/Store16/Shops/78056732/543E/49AA/A7F4/1BDC/1A9D/C0A8/2AB8/869C/Grosser_Absaugschlauch_Ultradent_Finndent_Anthos_Weber.JPG;3750
https://www.smartandeasy.net/WebRoot/Store16/Shops/78056732/543E/49AA/A7F4/1BDC/1A9D/C0A8/2AB8/869C/Speichelzieher_Ultradent_Anthos_Weber.JPG;3751
https://www.smartandeasy.net/WebRoot/Store16/Shops/78056732/543E/49AA/1D81/6091/3E82/C0A8/2AB8/86A2/Grosser_Saugschlauch_KaVo_Speichelzieher.JPG;3752
https://www.smartandeasy.net/WebRoot/Store16/Shops/78056732/543E/49AA/1D81/6091/3E82/C0A8/2AB8/86A2/Grosser_Absaugschlauch_KaVo.JPG;3753
https://www.smartandeasy.net/WebRoot/Store16/Shops/78056732/543E/49AD/08EE/41D0/4857/C0A8/2AB8/86D9/ZI08_Geraetewagen_Cart_Dentaltechnik_Trolley_Laborbedarf_Dental_Trolley_Ablage_fuer_Dentalgeraete_0.jpg;3754
https://www.smartandeasy.net/WebRoot/Store16/Shops/78056732/543E/49AD/08EE/41D0/4857/C0A8/2AB8/86D9/ZI08_Geraetewagen_Cart_Dentaltechnik_Trolley_Laborbedarf_Dental_Trolley_Ablage_fuer_Dentalgeraete_2.jpg;3755
https://www.smartandeasy.net/WebRoot/Store16/Shops/78056732/543E/49AD/08EE/41D0/4857/C0A8/2AB8/86D9/Instrumentenwagen_mit_Luft__Wasseranschluss.JPG;3756
https://www.smartandeasy.net/WebRoot/Store16/Shops/78056732/543E/49AD/08EE/41D0/4857/C0A8/2AB8/86D9/Geraetewagen_Dental.png;3757
